prologues:=2;
verbatimtex
%&latex
\documentclass{tesis}
\begin{document}
etex
input graph;

fill unitsquare scaled 3pt withcolor 0.8white;
picture unitsq;
unitsq := currentpicture;
currentpicture := nullpicture;

picture unitc;
draw (0,0) withpen pencircle scaled 3pt;% withcolor 0*white;
unitc := currentpicture;
currentpicture := nullpicture;

beginfig(1);

  draw begingraph(6.5cm,4.5cm);
    setrange(0,0.6,whatever,whatever);
    setcoords(linear,linear);
     otick.lft(btex $0$ etex,0);
     otick.lft(btex $5$ etex,5);
     otick.lft(btex $10$ etex,10);
     otick.lft(btex $15$ etex,15);
     otick.lft(btex $20$ etex,20);

    glabel.bot(btex $x$ etex, OUT);
    gdraw "periodicidad.dat" plot unitsq;
%    autogrid(,otick.lft);
    setcoords(linear,linear);

    glabel.lft(btex $M$ etex,OUT);
    otick.bot(btex $0$ etex,0);
    otick.bot(btex $0.2$ etex,0.2);
    otick.bot(btex $0.4$ etex,0.4);
    otick.bot(btex $0.6$ etex,0.6);

    otick.rt(btex $0$ etex,0);
    otick.rt(btex $0.05$ etex,0.05);
    otick.rt(btex $0.1$ etex,0.1);
    otick.rt(btex $0.15$ etex,0.15);
    otick.rt(btex $0.2$ etex,0.2);
    glabel.rt(btex $M^{-1}$ etex,OUT);
  
    gdraw "periodicidad.dat" plot unitc;
    gdraw (0,0)--(0.65,0.2166);
  
  endgraph;

endfig;

end;

end

end
